\relax 
\providecommand\hyper@newdestlabel[2]{}
\providecommand\HyperFirstAtBeginDocument{\AtBeginDocument}
\HyperFirstAtBeginDocument{\ifx\hyper@anchor\@undefined
\global\let\oldcontentsline\contentsline
\gdef\contentsline#1#2#3#4{\oldcontentsline{#1}{#2}{#3}}
\global\let\oldnewlabel\newlabel
\gdef\newlabel#1#2{\newlabelxx{#1}#2}
\gdef\newlabelxx#1#2#3#4#5#6{\oldnewlabel{#1}{{#2}{#3}}}
\AtEndDocument{\ifx\hyper@anchor\@undefined
\let\contentsline\oldcontentsline
\let\newlabel\oldnewlabel
\fi}
\fi}
\global\let\hyper@last\relax 
\gdef\HyperFirstAtBeginDocument#1{#1}
\providecommand\HyField@AuxAddToFields[1]{}
\providecommand\HyField@AuxAddToCoFields[2]{}
\providecommand\pbs@newkey[2]{}
\providecommand\pbs@seq@push@cx[2]{}
\providecommand\pbs@at@end@dvi@check{}
\pbs@at@end@dvi@check
\providecommand\mix@newkey[2]{}
\pbs@newkey{pbs@last@page}{1}
\providecommand \oddpage@label [2]{}
\babel@aux{english}{}
\pbs@newkey{pbs@last@page}{2}
\@writefile{toc}{\contentsline {section}{\numberline { \oldstylenums  {1} }Logic, Sets and Numbers}{2}{section.1}}
\@writefile{toc}{\contentsline {subsection}{\numberline { \oldstylenums  { \oldstylenums  {1} .1} }Compositions}{2}{subsection.1.1}}
\@writefile{toc}{\contentsline {subsection}{\numberline { \oldstylenums  { \oldstylenums  {1} .2} }Quantors}{2}{subsection.1.2}}
\@writefile{toc}{\contentsline {subsection}{\numberline { \oldstylenums  { \oldstylenums  {1} .3} }Sets}{2}{subsection.1.3}}
\pbs@newkey{pbs@last@page}{3}
\@writefile{toc}{\contentsline {subsection}{\numberline { \oldstylenums  { \oldstylenums  {1} .4} }Numbers}{3}{subsection.1.4}}
\@writefile{toc}{\contentsline {subsubsection}{\numberline { \oldstylenums  { \oldstylenums  { \oldstylenums  {1} .4} .1} }Intervals}{3}{subsubsection.1.4.1}}
\@writefile{toc}{\contentsline {subsubsection}{\numberline { \oldstylenums  { \oldstylenums  { \oldstylenums  {1} .4} .2} }Bounds}{3}{subsubsection.1.4.2}}
\@writefile{toc}{\contentsline {subsubsection}{\numberline { \oldstylenums  { \oldstylenums  { \oldstylenums  {1} .4} .3} }Extrema}{3}{subsubsection.1.4.3}}
\@writefile{toc}{\contentsline {subsubsection}{\numberline { \oldstylenums  { \oldstylenums  { \oldstylenums  {1} .4} .4} }Suprema/Infima}{3}{subsubsection.1.4.4}}
\newlabel{LastPage}{{}{3}{}{page.3}{}}
\xdef\lastpage@lastpage{3}
\xdef\lastpage@lastpageHy{3}
\ttl@finishall
