\relax 
\providecommand\hyper@newdestlabel[2]{}
\providecommand\HyperFirstAtBeginDocument{\AtBeginDocument}
\HyperFirstAtBeginDocument{\ifx\hyper@anchor\@undefined
\global\let\oldcontentsline\contentsline
\gdef\contentsline#1#2#3#4{\oldcontentsline{#1}{#2}{#3}}
\global\let\oldnewlabel\newlabel
\gdef\newlabel#1#2{\newlabelxx{#1}#2}
\gdef\newlabelxx#1#2#3#4#5#6{\oldnewlabel{#1}{{#2}{#3}}}
\AtEndDocument{\ifx\hyper@anchor\@undefined
\let\contentsline\oldcontentsline
\let\newlabel\oldnewlabel
\fi}
\fi}
\global\let\hyper@last\relax 
\gdef\HyperFirstAtBeginDocument#1{#1}
\providecommand\HyField@AuxAddToFields[1]{}
\providecommand\HyField@AuxAddToCoFields[2]{}
\providecommand\pbs@newkey[2]{}
\providecommand\pbs@seq@push@cx[2]{}
\providecommand\pbs@at@end@dvi@check{}
\pbs@at@end@dvi@check
\providecommand\mix@newkey[2]{}
\pbs@newkey{pbs@last@page}{1}
\providecommand \oddpage@label [2]{}
\babel@aux{english}{}
\pbs@newkey{pbs@last@page}{2}
\pbs@newkey{pbs@last@page}{3}
\@writefile{toc}{\contentsline {section}{\numberline { \oldstylenums  {1} }General Knowledge}{3}{section.1}}
\@writefile{toc}{\contentsline {subsection}{\numberline { \oldstylenums  { \oldstylenums  {1} .1} }Chemical Equilibrium}{3}{subsection.1.1}}
\@writefile{toc}{\contentsline {section}{\numberline { \oldstylenums  {2} }Br\o nsted Acids and Bases}{3}{section.2}}
\pgfsyspdfmark {pgfid1}{15133438}{18697385}
\@writefile{toc}{\contentsline {subsection}{\numberline { \oldstylenums  { \oldstylenums  {2} .1} }Definitions}{3}{subsection.2.1}}
\pbs@newkey{pbs@last@page}{4}
\@writefile{toc}{\contentsline {subsection}{\numberline { \oldstylenums  { \oldstylenums  {2} .2} }Basics}{4}{subsection.2.2}}
\@writefile{toc}{\contentsline {subsection}{\numberline { \oldstylenums  { \oldstylenums  {2} .3} }Classification of Acids/Bases}{4}{subsection.2.3}}
\@writefile{toc}{\contentsline {subsection}{\numberline { \oldstylenums  { \oldstylenums  {2} .4} }Helper Functions}{4}{subsection.2.4}}
\@writefile{toc}{\contentsline {subsubsection}{\numberline { \oldstylenums  { \oldstylenums  { \oldstylenums  {2} .4} .1} }Protonenherkunftsgleichung}{4}{subsubsection.2.4.1}}
\bibstyle{unsrt}
\bibdata{literature}
\pbs@newkey{pbs@last@page}{5}
\@writefile{toc}{\contentsline {subsubsection}{\numberline { \oldstylenums  { \oldstylenums  { \oldstylenums  {2} .4} .2} }Massenerhaltung / Conservatoin of Mass}{5}{subsubsection.2.4.2}}
\@writefile{toc}{\contentsline {subsubsection}{\numberline { \oldstylenums  { \oldstylenums  { \oldstylenums  {2} .4} .3} }Calculations}{5}{subsubsection.2.4.3}}
\@writefile{toc}{\contentsline {subsubsection}{\numberline { \oldstylenums  { \oldstylenums  { \oldstylenums  {2} .4} .4} }Strong Acids, Diluted}{5}{subsubsection.2.4.4}}
\@writefile{toc}{\contentsline {subsubsection}{\numberline { \oldstylenums  { \oldstylenums  { \oldstylenums  {2} .4} .5} }Sttrong Acids, Concentrated}{5}{subsubsection.2.4.5}}
\@writefile{toc}{\contentsline {subsubsection}{\numberline { \oldstylenums  { \oldstylenums  { \oldstylenums  {2} .4} .6} }Weak Acids, Diluted}{5}{subsubsection.2.4.6}}
\@writefile{toc}{\contentsline {subsubsection}{\numberline { \oldstylenums  { \oldstylenums  { \oldstylenums  {2} .4} .7} }Weak Acids, Concentrated}{5}{subsubsection.2.4.7}}
\@writefile{toc}{\contentsline {section}{\numberline { \oldstylenums  {3} }Redox Reactions}{5}{section.3}}
\@writefile{toc}{\contentsline {section}{\numberline { \oldstylenums  {4} }Complexes}{5}{section.4}}
\newlabel{LastPage}{{}{5}{}{page.5}{}}
\xdef\lastpage@lastpage{5}
\xdef\lastpage@lastpageHy{5}
\ttl@finishall
