\relax 
\providecommand\hyper@newdestlabel[2]{}
\providecommand\HyperFirstAtBeginDocument{\AtBeginDocument}
\HyperFirstAtBeginDocument{\ifx\hyper@anchor\@undefined
\global\let\oldcontentsline\contentsline
\gdef\contentsline#1#2#3#4{\oldcontentsline{#1}{#2}{#3}}
\global\let\oldnewlabel\newlabel
\gdef\newlabel#1#2{\newlabelxx{#1}#2}
\gdef\newlabelxx#1#2#3#4#5#6{\oldnewlabel{#1}{{#2}{#3}}}
\AtEndDocument{\ifx\hyper@anchor\@undefined
\let\contentsline\oldcontentsline
\let\newlabel\oldnewlabel
\fi}
\fi}
\global\let\hyper@last\relax 
\gdef\HyperFirstAtBeginDocument#1{#1}
\providecommand\HyField@AuxAddToFields[1]{}
\providecommand\HyField@AuxAddToCoFields[2]{}
\providecommand\pbs@newkey[2]{}
\providecommand\pbs@seq@push@cx[2]{}
\providecommand\pbs@at@end@dvi@check{}
\pbs@at@end@dvi@check
\providecommand\mix@newkey[2]{}
\pbs@newkey{pbs@last@page}{1}
\providecommand \oddpage@label [2]{}
\babel@aux{english}{}
\pbs@newkey{pbs@last@page}{2}
\@writefile{toc}{\contentsline {section}{\numberline { \oldstylenums  {1} }Chemical Bond}{2}{section.1}}
\@writefile{toc}{\contentsline {subsection}{\numberline { \oldstylenums  { \oldstylenums  {1} .1} }Electron Configuratoin}{2}{subsection.1.1}}
\pbs@newkey{pbs@last@page}{3}
\@writefile{toc}{\contentsline {subsection}{\numberline { \oldstylenums  { \oldstylenums  {1} .2} }Oxidation Numbers}{3}{subsection.1.2}}
\@writefile{toc}{\contentsline {subsection}{\numberline { \oldstylenums  { \oldstylenums  {1} .3} }Atom Orbitals}{3}{subsection.1.3}}
\@writefile{toc}{\contentsline {subsubsection}{\numberline { \oldstylenums  { \oldstylenums  { \oldstylenums  {1} .3} .1} }Hybridization}{3}{subsubsection.1.3.1}}
\pbs@newkey{pbs@last@page}{4}
\@writefile{toc}{\contentsline {section}{\numberline { \oldstylenums  {2} }Substance Classes}{4}{section.2}}
\@writefile{toc}{\contentsline {subsection}{\numberline { \oldstylenums  { \oldstylenums  {2} .1} }Alkanes}{4}{subsection.2.1}}
\pgfsyspdfmark {pgfid1}{14731205}{44189308}
\@writefile{toc}{\contentsline {subsection}{\numberline { \oldstylenums  { \oldstylenums  {2} .2} }Alkenes}{4}{subsection.2.2}}
\pgfsyspdfmark {pgfid2}{12982035}{37668345}
\pgfsyspdfmark {pgfid3}{22022795}{37668345}
\@writefile{toc}{\contentsline {subsection}{\numberline { \oldstylenums  { \oldstylenums  {2} .3} }Alkines}{4}{subsection.2.3}}
\pgfsyspdfmark {pgfid4}{12852654}{31147382}
\@writefile{toc}{\contentsline {subsection}{\numberline { \oldstylenums  { \oldstylenums  {2} .4} }Aromatic Hydrocarbons}{4}{subsection.2.4}}
\@writefile{toc}{\contentsline {subsection}{\numberline { \oldstylenums  { \oldstylenums  {2} .5} }Alcohols}{4}{subsection.2.5}}
\pgfsyspdfmark {pgfid5}{13366194}{20556494}
\@writefile{toc}{\contentsline {subsection}{\numberline { \oldstylenums  { \oldstylenums  {2} .6} }Ether}{4}{subsection.2.6}}
\pgfsyspdfmark {pgfid6}{13366194}{14867834}
\@writefile{toc}{\contentsline {subsection}{\numberline { \oldstylenums  { \oldstylenums  {2} .7} }Ketone}{4}{subsection.2.7}}
\pgfsyspdfmark {pgfid7}{10638061}{10915878}
\pgfsyspdfmark {pgfid8}{17526747}{5922690}
\pbs@newkey{pbs@last@page}{5}
\@writefile{toc}{\contentsline {subsection}{\numberline { \oldstylenums  { \oldstylenums  {2} .8} }Aldehyde}{5}{subsection.2.8}}
\pgfsyspdfmark {pgfid9}{11394612}{47947243}
\pgfsyspdfmark {pgfid10}{17502105}{42871081}
\@writefile{toc}{\contentsline {subsection}{\numberline { \oldstylenums  { \oldstylenums  {2} .9} }Carboxylic Acid}{5}{subsection.2.9}}
\pgfsyspdfmark {pgfid11}{13611208}{37322104}
\@writefile{toc}{\contentsline {subsection}{\numberline { \oldstylenums  { \oldstylenums  {2} .10} }Hydrate}{5}{subsection.2.10}}
\pgfsyspdfmark {pgfid12}{13097235}{32456280}
\pgfsyspdfmark {pgfid13}{17526747}{27474527}
\@writefile{toc}{\contentsline {subsection}{\numberline { \oldstylenums  { \oldstylenums  {2} .11} }Hemiacetal/Halbacetal}{5}{subsection.2.11}}
\pgfsyspdfmark {pgfid14}{13051211}{23441011}
\pgfsyspdfmark {pgfid15}{18439152}{23441011}
\pgfsyspdfmark {pgfid16}{17236838}{16556819}
\@writefile{toc}{\contentsline {subsection}{\numberline { \oldstylenums  { \oldstylenums  {2} .12} }Acetal}{5}{subsection.2.12}}
\pgfsyspdfmark {pgfid17}{17544048}{4690411}
\pbs@newkey{pbs@last@page}{6}
\@writefile{toc}{\contentsline {subsection}{\numberline { \oldstylenums  { \oldstylenums  {2} .13} }Amine}{6}{subsection.2.13}}
\@writefile{toc}{\contentsline {subsubsection}{\numberline { \oldstylenums  { \oldstylenums  { \oldstylenums  {2} .13} .1} }Carboxylic Acid Derivatives}{6}{subsubsection.2.13.1}}
\pgfsyspdfmark {pgfid18}{16328847}{38593419}
\@writefile{lof}{\contentsline {figure}{\numberline {\oldstylenums  {1}}{\ignorespaces Carbonsäureester\relax }}{6}{figure.caption.6}}
\pgfsyspdfmark {pgfid19}{16328847}{31038692}
\@writefile{lof}{\contentsline {figure}{\numberline {\oldstylenums  {2}}{\ignorespaces Secondary Carboxylic Acid Amide\relax }}{6}{figure.caption.7}}
\@writefile{toc}{\contentsline {subsection}{\numberline { \oldstylenums  { \oldstylenums  {2} .14} }Amino Acid}{6}{subsection.2.14}}
\pgfsyspdfmark {pgfid20}{17500003}{19414605}
\@writefile{toc}{\contentsline {subsubsection}{\numberline { \oldstylenums  { \oldstylenums  { \oldstylenums  {2} .14} .1} }Peptides}{6}{subsubsection.2.14.1}}
\pgfsyspdfmark {pgfid21}{9793467}{9647514}
\pbs@newkey{pbs@last@page}{7}
\@writefile{toc}{\contentsline {section}{\numberline { \oldstylenums  {3} }Conformations}{7}{section.3}}
\@writefile{toc}{\contentsline {subsection}{\numberline { \oldstylenums  { \oldstylenums  {3} .1} }Cyclohexane}{7}{subsection.3.1}}
\pgfsyspdfmark {pgfid23}{8367304}{35069889}
\pgfsyspdfmark {pgfid24}{18276262}{35973543}
\pgfsyspdfmark {pgfid25}{25571188}{36995151}
\pgfsyspdfmark {pgfid22}{8354197}{35069889}
\@writefile{lof}{\contentsline {figure}{\numberline {\oldstylenums  {3}}{\ignorespaces Left to right: Sessel, Twistboot, Wanne\relax }}{7}{figure.caption.10}}
\@writefile{toc}{\contentsline {subsection}{\numberline { \oldstylenums  { \oldstylenums  {3} .2} }Comparison of Cycloalkanes}{7}{subsection.3.2}}
\@writefile{toc}{\contentsline {section}{\numberline { \oldstylenums  {4} }Chirality}{7}{section.4}}
\@writefile{toc}{\contentsline {section}{\numberline { \oldstylenums  {5} }Br\o nsted Acids and Bases}{7}{section.5}}
\pgfsyspdfmark {pgfid26}{15509081}{14630845}
\pgfsyspdfmark {pgfid27}{15532543}{13680574}
\@writefile{toc}{\contentsline {section}{\numberline { \oldstylenums  {6} }S\textsubscript  {N}1/S\textsubscript  {N}2 Reactions}{7}{section.6}}
\newlabel{LastPage}{{}{7}{}{page.7}{}}
\xdef\lastpage@lastpage{7}
\xdef\lastpage@lastpageHy{7}
\ttl@finishall
