\babel@toc {english}{}
\contentsline {section}{\numberline { \oldstylenums {1} }Chemical Bond}{2}{section.1}
\contentsline {subsection}{\numberline { \oldstylenums { \oldstylenums {1} .1} }Electron Configuratoin}{2}{subsection.1.1}
\contentsline {subsection}{\numberline { \oldstylenums { \oldstylenums {1} .2} }Oxidation Numbers}{3}{subsection.1.2}
\contentsline {subsection}{\numberline { \oldstylenums { \oldstylenums {1} .3} }Atom Orbitals}{3}{subsection.1.3}
\contentsline {subsubsection}{\numberline { \oldstylenums { \oldstylenums { \oldstylenums {1} .3} .1} }Hybridization}{3}{subsubsection.1.3.1}
\contentsline {section}{\numberline { \oldstylenums {2} }Substance Classes}{4}{section.2}
\contentsline {subsection}{\numberline { \oldstylenums { \oldstylenums {2} .1} }Alkanes}{4}{subsection.2.1}
\contentsline {subsection}{\numberline { \oldstylenums { \oldstylenums {2} .2} }Alkenes}{4}{subsection.2.2}
\contentsline {subsection}{\numberline { \oldstylenums { \oldstylenums {2} .3} }Alkines}{4}{subsection.2.3}
\contentsline {subsection}{\numberline { \oldstylenums { \oldstylenums {2} .4} }Aromatic Hydrocarbons}{4}{subsection.2.4}
\contentsline {subsection}{\numberline { \oldstylenums { \oldstylenums {2} .5} }Alcohols}{4}{subsection.2.5}
\contentsline {subsection}{\numberline { \oldstylenums { \oldstylenums {2} .6} }Ether}{4}{subsection.2.6}
\contentsline {subsection}{\numberline { \oldstylenums { \oldstylenums {2} .7} }Ketone}{4}{subsection.2.7}
\contentsline {subsection}{\numberline { \oldstylenums { \oldstylenums {2} .8} }Aldehyde}{5}{subsection.2.8}
\contentsline {subsection}{\numberline { \oldstylenums { \oldstylenums {2} .9} }Carboxylic Acid}{5}{subsection.2.9}
\contentsline {subsection}{\numberline { \oldstylenums { \oldstylenums {2} .10} }Hydrate}{5}{subsection.2.10}
\contentsline {subsection}{\numberline { \oldstylenums { \oldstylenums {2} .11} }Hemiacetal/Halbacetal}{5}{subsection.2.11}
\contentsline {subsection}{\numberline { \oldstylenums { \oldstylenums {2} .12} }Acetal}{5}{subsection.2.12}
\contentsline {subsection}{\numberline { \oldstylenums { \oldstylenums {2} .13} }Amine}{6}{subsection.2.13}
\contentsline {subsubsection}{\numberline { \oldstylenums { \oldstylenums { \oldstylenums {2} .13} .1} }Carboxylic Acid Derivatives}{6}{subsubsection.2.13.1}
\contentsline {subsection}{\numberline { \oldstylenums { \oldstylenums {2} .14} }Amino Acid}{6}{subsection.2.14}
\contentsline {subsubsection}{\numberline { \oldstylenums { \oldstylenums { \oldstylenums {2} .14} .1} }Peptides}{6}{subsubsection.2.14.1}
\contentsline {section}{\numberline { \oldstylenums {3} }Conformations}{7}{section.3}
\contentsline {subsection}{\numberline { \oldstylenums { \oldstylenums {3} .1} }Cyclohexane}{7}{subsection.3.1}
\contentsline {subsection}{\numberline { \oldstylenums { \oldstylenums {3} .2} }Comparison of Cycloalkanes}{7}{subsection.3.2}
\contentsline {section}{\numberline { \oldstylenums {4} }Chirality}{7}{section.4}
\contentsline {section}{\numberline { \oldstylenums {5} }Br\o nsted Acids and Bases}{7}{section.5}
\contentsline {section}{\numberline { \oldstylenums {6} }S\textsubscript {N}1/S\textsubscript {N}2 Reactions}{7}{section.6}
\contentsfinish 
